{
  "name": "non_adv_config",
  "gen_arch": {
    "type": "UNetGenerator",
    "args": {
      "down_filters": [64, 128, 256, 512, 512, 512, 512, 512],
      "down_activation": {
        "type": "LeakyReLU",
        "args": {
          "negative_slope": 0.2
        }
      },
      "down_dropouts": [0, 0, 0, 0, 0, 0, 0, 0],
      "up_filters": [512, 512, 512, 512, 256, 128, 64],
      "up_activation": {
        "type": "ReLU",
        "args": {
        }
      },
      "up_dropouts": [0.5, 0.5, 0.5, 0, 0, 0, 0, 0]
    }
  },
  "data": {
    "train": {
      "batch_size": 4,
      "num_workers": 4,
      "dataset": {
        "type": "AlignedImagesDataset",
        "args": {
          "dataset_name": "facades",
          "root": "./data/datasets",
          "mode": "train"
        }
      }
    },
    "val": {
      "batch_size": 4,
      "num_workers": 4,
      "dataset": {
        "type": "AlignedImagesDataset",
        "args": {
          "dataset_name": "facades",
          "root": "./data/datasets",
          "mode": "val",
          "limit": 32
        }
      }
    }
  },
  "gen_opt": {
    "type": "AdamW",
    "args": {
      "lr": 2e-5
    }
  },
  "gen_loss": {
    "type": "L1Loss",
    "args": {
    }
  },
  "lr_scheduler": {
    "type": "OneCycleLR",
    "args": {
      "steps_per_epoch": 100,
      "epochs": 50,
      "anneal_strategy": "cos",
      "max_lr": 2e-5
    }
  },
  "trainer": {
    "epochs": 50,
    "len_epoch": 100,
    "save_dir": "saved/",
    "save_period": 5,
    "verbosity": 2,
    "monitor": "min val_loss",
    "early_stop": -1,
    "visualize": "placeholder",
    "wandb_project": "dl_hw3",
    "grad_norm_clip": 10
  }
}
